key=10000
values=[1683329.0, 1674770.0, 1731746.0]
avg_val=1696615.0

key=100000
values=[1004733.0, 1030713.0, 987445.0]
avg_val=1007630.3333333334

key=1000000
values=[372590.0, 350058.0, 387271.0]
avg_val=369973.0

key=8000000
values=[182243.0, 181884.0, 182215.0]
avg_val=182114.0

