key=10000
values=[2633629.0, 2614291.0, 2589609.0]
avg_val=2612509.6666666665

key=100000
values=[2350088.0, 2337797.0, 2342315.0]
avg_val=2343400.0

key=1000000
values=[1309212.0, 1225980.0, 1396779.0]
avg_val=1310657.0

key=8000000
values=[423908.0, 438811.0, 426282.0]
avg_val=429667.0

