key=10000
values=[3502103.0, 3474963.0, 3468871.0]
avg_val=3481979.0

key=100000
values=[2446030.0, 2435218.0, 2421354.0]
avg_val=2434200.6666666665

key=1000000
values=[935364.0, 920929.0, 941312.0]
avg_val=932535.0

key=8000000
values=[577283.0, 541405.0, 584838.0]
avg_val=567842.0

