key=10000
values=[3866325.0, 3882828.0, 3857193.0]
avg_val=3868782.0

key=100000
values=[2718470.0, 2836148.0, 3001416.0]
avg_val=2852011.3333333335

key=1000000
values=[1093280.0, 1073306.0, 990701.0]
avg_val=1052429.0

key=8000000
values=[653880.0, 667193.0, 617746.0]
avg_val=646273.0

